…
**Star bakers / Winners:**

``` r
star_baker = dat_merge_f |> 
  filter(series >= 5 & series <= 10 & result %in% c("STAR BAKER", "WINNER")) |> 
  select(series, episode, result, baker) |> 
  arrange(series, episode)

star_baker
```

    ## # A tibble: 60 × 4
    ##    series episode result     baker  
    ##     <dbl>   <dbl> <chr>      <chr>  
    ##  1      5       1 STAR BAKER Nancy  
    ##  2      5       2 STAR BAKER Richard
    ##  3      5       3 STAR BAKER Luis   
    ##  4      5       4 STAR BAKER Richard
    ##  5      5       5 STAR BAKER Kate   
    ##  6      5       6 STAR BAKER Chetna 
    ##  7      5       7 STAR BAKER Richard
    ##  8      5       8 STAR BAKER Richard
    ##  9      5       9 STAR BAKER Richard
    ## 10      5      10 WINNER     Nancy  
    ## # ℹ 50 more rows
…
